{"count":75317,"next":"https://api.rawg.io/api/publishers?key=2ad101e9699643f5baf3e803083df4c6&page=2","previous":null,"results":[{"id":354,"name":"Electronic Arts","slug":"electronic-arts","games_count":1324,"image_background":"https://media.rawg.io/media/games/90f/90fd5e569bc4c4a666c588a732124908.jpg","games":[{"id":4200,"slug":"portal-2","name":"Portal 2","added":19440},{"id":12020,"slug":"left-4-dead-2","name":"Left 4 Dead 2","added":16443},{"id":290856,"slug":"apex-legends","name":"Apex Legends","added":11239},{"id":4252,"slug":"mirrors-edge","name":"Mirror's Edge","added":10433},{"id":4570,"slug":"dead-space","name":"Dead Space (2008)","added":9174},{"id":257201,"slug":"jedi-the-fallen-order","name":"Star Wars Jedi: Fallen Order","added":9122}]},{"id":308,"name":"Square Enix","slug":"square-enix","games_count":594,"image_background":"https://media.rawg.io/media/games/1fb/1fb1c5f7a71d771f440b27ce7f71e7eb.jpg","games":[{"id":5286,"slug":"tomb-raider","name":"Tomb Raider (2013)","added":16754},{"id":3439,"slug":"life-is-strange-episode-1-2","name":"Life is Strange","added":15167},{"id":7689,"slug":"rise-of-the-tomb-raider","name":"Rise of the Tomb Raider","added":11712},{"id":10035,"slug":"hitman","name":"Hitman","added":10516},{"id":1447,"slug":"deus-ex-mankind-divided","name":"Deus Ex: Mankind Divided","added":10210},{"id":5583,"slug":"hitman-absolution","name":"Hitman: Absolution","added":9257}]},{"id":918,"name":"Ubisoft Entertainment","slug":"ubisoft-entertainment","games_count":1076,"image_background":"https://media.rawg.io/media/games/39a/39a8aa7798b685f9625e857bc394259d.jpg","games":[{"id":4161,"slug":"far-cry-3","name":"Far Cry 3","added":10151},{"id":362,"slug":"for-honor","name":"For Honor","added":9330},{"id":3841,"slug":"assassins-creed-iv-black-flag","name":"Assassin’s Creed IV: Black Flag","added":9245},{"id":23585,"slug":"far-cry-5","name":"Far Cry 5","added":7990},{"id":3687,"slug":"watch-dogs","name":"Watch Dogs","added":7986},{"id":8488,"slug":"tom-clancys-rainbow-six-siege-2","name":"Tom Clancy's Rainbow Six Siege","added":7806}]},{"id":20987,"name":"Microsoft Studios","slug":"microsoft-studios","games_count":496,"image_background":"https://media.rawg.io/media/games/c89/c89ca70716080733d03724277df2c6c7.jpg","games":[{"id":1030,"slug":"limbo","name":"Limbo","added":13466},{"id":7689,"slug":"rise-of-the-tomb-raider","name":"Rise of the Tomb Raider","added":11712},{"id":19487,"slug":"alan-wake","name":"Alan Wake","added":9973},{"id":3144,"slug":"super-meat-boy","name":"Super Meat Boy","added":9345},{"id":4166,"slug":"mass-effect","name":"Mass Effect","added":8653},{"id":22509,"slug":"minecraft","name":"Minecraft","added":8359}]},{"id":3408,"name":"SEGA","slug":"sega-2","games_count":1248,"image_background":"https://media.rawg.io/media/games/8b9/8b9e77be7f0f7941b11ae4b21ca2db43.jpg","games":[{"id":10243,"slug":"company-of-heroes-2","name":"Company of Heroes 2","added":9407},{"id":28179,"slug":"sega-mega-drive-and-genesis-classics","name":"SEGA Mega Drive and Genesis Classics","added":8067},{"id":3556,"slug":"alien-isolation","name":"Alien: Isolation","added":7803},{"id":10560,"slug":"total-war-shogun-2","name":"Total War: SHOGUN 2","added":7121},{"id":492,"slug":"yakuza-0","name":"Yakuza 0","added":6309},{"id":4101,"slug":"bayonetta","name":"Bayonetta","added":5896}]},{"id":3399,"name":"Valve","slug":"valve","games_count":47,"image_background":"https://media.rawg.io/media/games/d58/d588947d4286e7b5e0e12e1bea7d9844.jpg","games":[{"id":4200,"slug":"portal-2","name":"Portal 2","added":19440},{"id":4291,"slug":"counter-strike-global-offensive","name":"Counter-Strike: Global Offensive","added":17128},{"id":13536,"slug":"portal","name":"Portal","added":16550},{"id":12020,"slug":"left-4-dead-2","name":"Left 4 Dead 2","added":16443},{"id":13537,"slug":"half-life-2","name":"Half-Life 2","added":14693},{"id":11859,"slug":"team-fortress-2","name":"Team Fortress 2","added":13270}]},{"id":358,"name":"2K Games","slug":"2k-games","games_count":212,"image_background":"https://media.rawg.io/media/games/c6b/c6bfece1daf8d06bc0a60632ac78e5bf.jpg","games":[{"id":4062,"slug":"bioshock-infinite","name":"BioShock Infinite","added":15335},{"id":802,"slug":"borderlands-2","name":"Borderlands 2","added":15155},{"id":4286,"slug":"bioshock","name":"BioShock","added":13887},{"id":4427,"slug":"bioshock-2","name":"BioShock 2","added":10879},{"id":10754,"slug":"bioshock-remastered","name":"BioShock Remastered","added":10199},{"id":4332,"slug":"spec-ops-the-line","name":"Spec Ops: The Line","added":10012}]},{"id":339,"name":"Bethesda Softworks","slug":"bethesda-softworks","games_count":179,"image_background":"https://media.rawg.io/media/games/151/151e79f397328419c64aabe93d9d5a31.jpg","games":[{"id":5679,"slug":"the-elder-scrolls-v-skyrim","name":"The Elder Scrolls V: Skyrim","added":15877},{"id":3070,"slug":"fallout-4","name":"Fallout 4","added":13465},{"id":2454,"slug":"doom","name":"DOOM (2016)","added":13318},{"id":3696,"slug":"wolfenstein-the-new-order","name":"Wolfenstein: The New Order","added":9911},{"id":39,"slug":"prey","name":"Prey","added":9699},{"id":5563,"slug":"fallout-new-vegas","name":"Fallout: New Vegas","added":9543}]},{"id":19651,"name":"Feral Interactive","slug":"feral-interactive","games_count":111,"image_background":"https://media.rawg.io/media/screenshots/4d9/4d9afae02fdf2896569b1c7bfeabb8c1.jpg","games":[{"id":3439,"slug":"life-is-strange-episode-1-2","name":"Life is Strange","added":15167},{"id":4286,"slug":"bioshock","name":"BioShock","added":13887},{"id":7689,"slug":"rise-of-the-tomb-raider","name":"Rise of the Tomb Raider","added":11712},{"id":11973,"slug":"shadow-of-mordor","name":"Middle-earth: Shadow of Mordor","added":11135},{"id":4427,"slug":"bioshock-2","name":"BioShock 2","added":10879},{"id":10035,"slug":"hitman","name":"Hitman","added":10516}]},{"id":10212,"name":"Sony Computer Entertainment","slug":"sony-computer-entertainment","games_count":467,"image_background":"https://media.rawg.io/media/games/951/951572a3dd1e42544bd39a5d5b42d234.jpg","games":[{"id":278,"slug":"horizon-zero-dawn","name":"Horizon Zero Dawn","added":12483},{"id":58134,"slug":"marvels-spider-man","name":"Marvel's Spider-Man","added":9996},{"id":29177,"slug":"detroit-become-human","name":"Detroit: Become Human","added":9766},{"id":2462,"slug":"uncharted-4-a-thiefs-end","name":"Uncharted 4: A Thief’s End","added":9148},{"id":3636,"slug":"the-last-of-us-remastered","name":"The Last Of Us Remastered","added":8874},{"id":3387,"slug":"bloodborne","name":"Bloodborne","added":8480}]}]}