{"count":9672,"next":"https://api.rawg.io/api/tags?key=2ad101e9699643f5baf3e803083df4c6&page=2","previous":null,"results":[{"id":31,"name":"Singleplayer","slug":"singleplayer","games_count":226240,"image_background":"https://media.rawg.io/media/games/7cf/7cfc9220b401b7a300e409e539c9afd5.jpg","language":"eng","games":[{"id":3498,"slug":"grand-theft-auto-v","name":"Grand Theft Auto V","added":21077},{"id":3328,"slug":"the-witcher-3-wild-hunt","name":"The Witcher 3: Wild Hunt","added":20554},{"id":4200,"slug":"portal-2","name":"Portal 2","added":19440},{"id":5286,"slug":"tomb-raider","name":"Tomb Raider (2013)","added":16754},{"id":13536,"slug":"portal","name":"Portal","added":16550},{"id":12020,"slug":"left-4-dead-2","name":"Left 4 Dead 2","added":16443}]},{"id":40847,"name":"Steam Achievements","slug":"steam-achievements","games_count":39107,"image_background":"https://media.rawg.io/media/games/be0/be01c3d7d8795a45615da139322ca080.jpg","language":"eng","games":[{"id":3498,"slug":"grand-theft-auto-v","name":"Grand Theft Auto V","added":21077},{"id":4200,"slug":"portal-2","name":"Portal 2","added":19440},{"id":4291,"slug":"counter-strike-global-offensive","name":"Counter-Strike: Global Offensive","added":17128},{"id":13536,"slug":"portal","name":"Portal","added":16550},{"id":12020,"slug":"left-4-dead-2","name":"Left 4 Dead 2","added":16443},{"id":5679,"slug":"the-elder-scrolls-v-skyrim","name":"The Elder Scrolls V: Skyrim","added":15877}]},{"id":7,"name":"Multiplayer","slug":"multiplayer","games_count":38462,"image_background":"https://media.rawg.io/media/games/ec3/ec3a7db7b8ab5a71aad622fe7c62632f.jpg","language":"eng","games":[{"id":3498,"slug":"grand-theft-auto-v","name":"Grand Theft Auto V","added":21077},{"id":4200,"slug":"portal-2","name":"Portal 2","added":19440},{"id":4291,"slug":"counter-strike-global-offensive","name":"Counter-Strike: Global Offensive","added":17128},{"id":5286,"slug":"tomb-raider","name":"Tomb Raider (2013)","added":16754},{"id":12020,"slug":"left-4-dead-2","name":"Left 4 Dead 2","added":16443},{"id":28,"slug":"red-dead-redemption-2","name":"Red Dead Redemption 2","added":15518}]},{"id":40836,"name":"Full controller support","slug":"full-controller-support","games_count":18561,"image_background":"https://media.rawg.io/media/games/2ba/2bac0e87cf45e5b508f227d281c9252a.jpg","language":"eng","games":[{"id":3498,"slug":"grand-theft-auto-v","name":"Grand Theft Auto V","added":21077},{"id":3328,"slug":"the-witcher-3-wild-hunt","name":"The Witcher 3: Wild Hunt","added":20554},{"id":4200,"slug":"portal-2","name":"Portal 2","added":19440},{"id":4291,"slug":"counter-strike-global-offensive","name":"Counter-Strike: Global Offensive","added":17128},{"id":5286,"slug":"tomb-raider","name":"Tomb Raider (2013)","added":16754},{"id":12020,"slug":"left-4-dead-2","name":"Left 4 Dead 2","added":16443}]},{"id":40849,"name":"Steam Cloud","slug":"steam-cloud","games_count":18564,"image_background":"https://media.rawg.io/media/games/d58/d588947d4286e7b5e0e12e1bea7d9844.jpg","language":"eng","games":[{"id":4200,"slug":"portal-2","name":"Portal 2","added":19440},{"id":12020,"slug":"left-4-dead-2","name":"Left 4 Dead 2","added":16443},{"id":5679,"slug":"the-elder-scrolls-v-skyrim","name":"The Elder Scrolls V: Skyrim","added":15877},{"id":4062,"slug":"bioshock-infinite","name":"BioShock Infinite","added":15335},{"id":802,"slug":"borderlands-2","name":"Borderlands 2","added":15155},{"id":13537,"slug":"half-life-2","name":"Half-Life 2","added":14693}]},{"id":13,"name":"Atmospheric","slug":"atmospheric","games_count":33898,"image_background":"https://media.rawg.io/media/games/618/618c2031a07bbff6b4f611f10b6bcdbc.jpg","language":"eng","games":[{"id":3498,"slug":"grand-theft-auto-v","name":"Grand Theft Auto V","added":21077},{"id":3328,"slug":"the-witcher-3-wild-hunt","name":"The Witcher 3: Wild Hunt","added":20554},{"id":4200,"slug":"portal-2","name":"Portal 2","added":19440},{"id":5286,"slug":"tomb-raider","name":"Tomb Raider (2013)","added":16754},{"id":13536,"slug":"portal","name":"Portal","added":16550},{"id":5679,"slug":"the-elder-scrolls-v-skyrim","name":"The Elder Scrolls V: Skyrim","added":15877}]},{"id":7808,"name":"steam-trading-cards","slug":"steam-trading-cards","games_count":7569,"image_background":"https://media.rawg.io/media/games/5c0/5c0dd63002cb23f804aab327d40ef119.jpg","language":"eng","games":[{"id":4200,"slug":"portal-2","name":"Portal 2","added":19440},{"id":4291,"slug":"counter-strike-global-offensive","name":"Counter-Strike: Global Offensive","added":17128},{"id":12020,"slug":"left-4-dead-2","name":"Left 4 Dead 2","added":16443},{"id":5679,"slug":"the-elder-scrolls-v-skyrim","name":"The Elder Scrolls V: Skyrim","added":15877},{"id":4062,"slug":"bioshock-infinite","name":"BioShock Infinite","added":15335},{"id":3439,"slug":"life-is-strange-episode-1-2","name":"Life is Strange","added":15167}]},{"id":42,"name":"Great Soundtrack","slug":"great-soundtrack","games_count":3405,"image_background":"https://media.rawg.io/media/games/b45/b45575f34285f2c4479c9a5f719d972e.jpg","language":"eng","games":[{"id":3498,"slug":"grand-theft-auto-v","name":"Grand Theft Auto V","added":21077},{"id":3328,"slug":"the-witcher-3-wild-hunt","name":"The Witcher 3: Wild Hunt","added":20554},{"id":13536,"slug":"portal","name":"Portal","added":16550},{"id":5679,"slug":"the-elder-scrolls-v-skyrim","name":"The Elder Scrolls V: Skyrim","added":15877},{"id":28,"slug":"red-dead-redemption-2","name":"Red Dead Redemption 2","added":15518},{"id":4062,"slug":"bioshock-infinite","name":"BioShock Infinite","added":15335}]},{"id":24,"name":"RPG","slug":"rpg","games_count":21569,"image_background":"https://media.rawg.io/media/games/6cd/6cd653e0aaef5ff8bbd295bf4bcb12eb.jpg","language":"eng","games":[{"id":3498,"slug":"grand-theft-auto-v","name":"Grand Theft Auto V","added":21077},{"id":3328,"slug":"the-witcher-3-wild-hunt","name":"The Witcher 3: Wild Hunt","added":20554},{"id":5286,"slug":"tomb-raider","name":"Tomb Raider (2013)","added":16754},{"id":5679,"slug":"the-elder-scrolls-v-skyrim","name":"The Elder Scrolls V: Skyrim","added":15877},{"id":4062,"slug":"bioshock-infinite","name":"BioShock Infinite","added":15335},{"id":802,"slug":"borderlands-2","name":"Borderlands 2","added":15155}]},{"id":18,"name":"Co-op","slug":"co-op","games_count":11860,"image_background":"https://media.rawg.io/media/games/b49/b4912b5dbfc7ed8927b65f05b8507f6c.jpg","language":"eng","games":[{"id":3498,"slug":"grand-theft-auto-v","name":"Grand Theft Auto V","added":21077},{"id":4200,"slug":"portal-2","name":"Portal 2","added":19440},{"id":4291,"slug":"counter-strike-global-offensive","name":"Counter-Strike: Global Offensive","added":17128},{"id":12020,"slug":"left-4-dead-2","name":"Left 4 Dead 2","added":16443},{"id":28,"slug":"red-dead-redemption-2","name":"Red Dead Redemption 2","added":15518},{"id":802,"slug":"borderlands-2","name":"Borderlands 2","added":15155}]}]}