{"count":27966,"next":"https://api.rawg.io/api/creators?key=2ad101e9699643f5baf3e803083df4c6&page=2","previous":null,"results":[{"id":31,"name":"Gabe Newell","slug":"gabe-newell","image":"https://media.rawg.io/media/persons/5e5/5e5e064d3475fc3fe49d1d2debb4e36c.jpg","image_background":"https://media.rawg.io/media/games/2ba/2bac0e87cf45e5b508f227d281c9252a.jpg","games_count":24,"positions":[{"id":2,"name":"director","slug":"director"},{"id":5,"name":"producer","slug":"producer"},{"id":7,"name":"programmer","slug":"programmer"}],"games":[{"id":4200,"slug":"portal-2","name":"Portal 2","added":19440},{"id":4291,"slug":"counter-strike-global-offensive","name":"Counter-Strike: Global Offensive","added":17128},{"id":13536,"slug":"portal","name":"Portal","added":16550},{"id":12020,"slug":"left-4-dead-2","name":"Left 4 Dead 2","added":16443},{"id":13537,"slug":"half-life-2","name":"Half-Life 2","added":14693},{"id":19710,"slug":"half-life-2-episode-one","name":"Half-Life 2: Episode One","added":11094}]},{"id":37,"name":"Marc Laidlaw","slug":"marc-laidlaw","image":"https://media.rawg.io/media/persons/da3/da3fc907a3af9e494dc671b0c6348f5c.jpg","image_background":"https://media.rawg.io/media/games/2ba/2bac0e87cf45e5b508f227d281c9252a.jpg","games_count":15,"positions":[{"id":1,"name":"writer","slug":"writer"}],"games":[{"id":4200,"slug":"portal-2","name":"Portal 2","added":19440},{"id":4291,"slug":"counter-strike-global-offensive","name":"Counter-Strike: Global Offensive","added":17128},{"id":13536,"slug":"portal","name":"Portal","added":16550},{"id":12020,"slug":"left-4-dead-2","name":"Left 4 Dead 2","added":16443},{"id":13537,"slug":"half-life-2","name":"Half-Life 2","added":14693},{"id":10213,"slug":"dota-2","name":"Dota 2","added":12444}]},{"id":63,"name":"Robin Walker","slug":"robin-walker","image":"https://media.rawg.io/media/persons/b76/b76df211424e553218ce800f9b1d38f0.png","image_background":"https://media.rawg.io/media/games/2ba/2bac0e87cf45e5b508f227d281c9252a.jpg","games_count":14,"positions":[{"id":6,"name":"designer","slug":"designer"}],"games":[{"id":4200,"slug":"portal-2","name":"Portal 2","added":19440},{"id":4291,"slug":"counter-strike-global-offensive","name":"Counter-Strike: Global Offensive","added":17128},{"id":13536,"slug":"portal","name":"Portal","added":16550},{"id":12020,"slug":"left-4-dead-2","name":"Left 4 Dead 2","added":16443},{"id":11859,"slug":"team-fortress-2","name":"Team Fortress 2","added":13270},{"id":19710,"slug":"half-life-2-episode-one","name":"Half-Life 2: Episode One","added":11094}]},{"id":27630,"name":"David Speyrer","slug":"david-speyrer","image":"https://media.rawg.io/media/persons/513/51388ad8c1db829a2fcb0353560f0f2a.png","image_background":"https://media.rawg.io/media/games/2ba/2bac0e87cf45e5b508f227d281c9252a.jpg","games_count":12,"positions":[{"id":7,"name":"programmer","slug":"programmer"}],"games":[{"id":4200,"slug":"portal-2","name":"Portal 2","added":19440},{"id":13536,"slug":"portal","name":"Portal","added":16550},{"id":12020,"slug":"left-4-dead-2","name":"Left 4 Dead 2","added":16443},{"id":13537,"slug":"half-life-2","name":"Half-Life 2","added":14693},{"id":19710,"slug":"half-life-2-episode-one","name":"Half-Life 2: Episode One","added":11094},{"id":19709,"slug":"half-life-2-episode-two","name":"Half-Life 2: Episode Two","added":10995}]},{"id":70,"name":"Cris Velasco","slug":"cris-velasco","image":"https://media.rawg.io/media/persons/6ea/6ea06e2ddd6c0190e5134f61d826f30f.jpg","image_background":"https://media.rawg.io/media/games/49c/49c3dfa4ce2f6f140cc4825868e858cb.jpg","games_count":57,"positions":[{"id":3,"name":"composer","slug":"composer"}],"games":[{"id":802,"slug":"borderlands-2","name":"Borderlands 2","added":15155},{"id":4828,"slug":"borderlands","name":"Borderlands","added":9666},{"id":17540,"slug":"injustice-gods-among-us-ultimate-edition","name":"Injustice: Gods Among Us Ultimate Edition","added":9467},{"id":10243,"slug":"company-of-heroes-2","name":"Company of Heroes 2","added":9407},{"id":3387,"slug":"bloodborne","name":"Bloodborne","added":8480},{"id":480,"slug":"resident-evil-7-biohazard","name":"Resident Evil 7: Biohazard","added":8260}]},{"id":72,"name":"Jesper Kyd","slug":"jesper-kyd","image":"https://media.rawg.io/media/persons/2a5/2a502a143225ad0faf1f8319d58fb6c0.jpg","image_background":"https://media.rawg.io/media/games/49c/49c3dfa4ce2f6f140cc4825868e858cb.jpg","games_count":49,"positions":[{"id":3,"name":"composer","slug":"composer"}],"games":[{"id":802,"slug":"borderlands-2","name":"Borderlands 2","added":15155},{"id":4828,"slug":"borderlands","name":"Borderlands","added":9666},{"id":3543,"slug":"borderlands-the-pre-sequel","name":"Borderlands: The Pre-Sequel","added":8883},{"id":45969,"slug":"warhammer-vermintide-2","name":"Warhammer: Vermintide 2","added":7938},{"id":28568,"slug":"assassins-creed-ii","name":"Assassin's Creed II","added":7719},{"id":58654,"slug":"hitman-2","name":"Hitman 2","added":7714}]},{"id":3,"name":"Dan Houser","slug":"dan-houser","image":"https://media.rawg.io/media/persons/8ba/8babec5b685ff0be2beee43f3b7b3eb5.jpg","image_background":"https://media.rawg.io/media/games/20a/20aa03a10cda45239fe22d035c0ebe64.jpg","games_count":28,"positions":[{"id":1,"name":"writer","slug":"writer"},{"id":5,"name":"producer","slug":"producer"},{"id":6,"name":"designer","slug":"designer"}],"games":[{"id":3498,"slug":"grand-theft-auto-v","name":"Grand Theft Auto V","added":21077},{"id":28,"slug":"red-dead-redemption-2","name":"Red Dead Redemption 2","added":15518},{"id":4459,"slug":"grand-theft-auto-iv","name":"Grand Theft Auto IV","added":12474},{"id":416,"slug":"grand-theft-auto-san-andreas","name":"Grand Theft Auto: San Andreas","added":11260},{"id":4514,"slug":"la-noire","name":"L.A. Noire","added":9344},{"id":430,"slug":"grand-theft-auto-vice-city","name":"Grand Theft Auto: Vice City","added":9281}]},{"id":3559,"name":"Eric Smith","slug":"eric-smith","image":"https://media.rawg.io/media/persons/c94/c9422017814776d6dd51c7af5263062d.png","image_background":"https://media.rawg.io/media/games/2ba/2bac0e87cf45e5b508f227d281c9252a.jpg","games_count":19,"positions":[{"id":1,"name":"writer","slug":"writer"},{"id":4,"name":"artist","slug":"artist"}],"games":[{"id":4200,"slug":"portal-2","name":"Portal 2","added":19440},{"id":4291,"slug":"counter-strike-global-offensive","name":"Counter-Strike: Global Offensive","added":17128},{"id":13536,"slug":"portal","name":"Portal","added":16550},{"id":12020,"slug":"left-4-dead-2","name":"Left 4 Dead 2","added":16443},{"id":19710,"slug":"half-life-2-episode-one","name":"Half-Life 2: Episode One","added":11094},{"id":19709,"slug":"half-life-2-episode-two","name":"Half-Life 2: Episode Two","added":10995}]},{"id":28,"name":"Mike Morasky","slug":"mike-morasky","image":"https://media.rawg.io/media/persons/c7a/c7a93276d53a31fd6d0edfd69cba5d62.jpg","image_background":"https://media.rawg.io/media/games/2ba/2bac0e87cf45e5b508f227d281c9252a.jpg","games_count":15,"positions":[{"id":1,"name":"writer","slug":"writer"},{"id":3,"name":"composer","slug":"composer"}],"games":[{"id":4200,"slug":"portal-2","name":"Portal 2","added":19440},{"id":4291,"slug":"counter-strike-global-offensive","name":"Counter-Strike: Global Offensive","added":17128},{"id":13536,"slug":"portal","name":"Portal","added":16550},{"id":12020,"slug":"left-4-dead-2","name":"Left 4 Dead 2","added":16443},{"id":11859,"slug":"team-fortress-2","name":"Team Fortress 2","added":13270},{"id":19709,"slug":"half-life-2-episode-two","name":"Half-Life 2: Episode Two","added":10995}]},{"id":26,"name":"Erik Wolpaw","slug":"erik-wolpaw","image":"https://media.rawg.io/media/persons/ea0/ea01fc54ca9f7b27608d2baf64aed1c7.png","image_background":"https://media.rawg.io/media/games/2ba/2bac0e87cf45e5b508f227d281c9252a.jpg","games_count":13,"positions":[{"id":1,"name":"writer","slug":"writer"}],"games":[{"id":4200,"slug":"portal-2","name":"Portal 2","added":19440},{"id":4291,"slug":"counter-strike-global-offensive","name":"Counter-Strike: Global Offensive","added":17128},{"id":13536,"slug":"portal","name":"Portal","added":16550},{"id":12020,"slug":"left-4-dead-2","name":"Left 4 Dead 2","added":16443},{"id":19710,"slug":"half-life-2-episode-one","name":"Half-Life 2: Episode One","added":11094},{"id":19709,"slug":"half-life-2-episode-two","name":"Half-Life 2: Episode Two","added":10995}]}]}