{"count":447716,"next":"https://api.rawg.io/api/developers?key=2ad101e9699643f5baf3e803083df4c6&page=2","previous":null,"results":[{"id":405,"name":"Ubisoft","slug":"ubisoft","games_count":343,"image_background":"https://media.rawg.io/media/games/336/336c6bd63d83cf8e59937ab8895d1240.jpg","games":[{"id":4161,"slug":"far-cry-3","name":"Far Cry 3","added":10151},{"id":362,"slug":"for-honor","name":"For Honor","added":9330},{"id":3841,"slug":"assassins-creed-iv-black-flag","name":"Assassin’s Creed IV: Black Flag","added":9245},{"id":23585,"slug":"far-cry-5","name":"Far Cry 5","added":7990},{"id":3687,"slug":"watch-dogs","name":"Watch Dogs","added":7986},{"id":8488,"slug":"tom-clancys-rainbow-six-siege-2","name":"Tom Clancy's Rainbow Six Siege","added":7806}]},{"id":1612,"name":"Valve Software","slug":"valve-software","games_count":43,"image_background":"https://media.rawg.io/media/screenshots/d33/d331d95adf10b44ee3678129020bc31f.jpg","games":[{"id":4200,"slug":"portal-2","name":"Portal 2","added":19440},{"id":4291,"slug":"counter-strike-global-offensive","name":"Counter-Strike: Global Offensive","added":17128},{"id":13536,"slug":"portal","name":"Portal","added":16550},{"id":12020,"slug":"left-4-dead-2","name":"Left 4 Dead 2","added":16443},{"id":13537,"slug":"half-life-2","name":"Half-Life 2","added":14693},{"id":11859,"slug":"team-fortress-2","name":"Team Fortress 2","added":13270}]},{"id":18893,"name":"Feral Interactive","slug":"feral-interactive","games_count":107,"image_background":"https://media.rawg.io/media/games/be9/be9cf02720c9326e11d0fda14518554f.jpg","games":[{"id":7689,"slug":"rise-of-the-tomb-raider","name":"Rise of the Tomb Raider","added":11712},{"id":11973,"slug":"shadow-of-mordor","name":"Middle-earth: Shadow of Mordor","added":11135},{"id":4427,"slug":"bioshock-2","name":"BioShock 2","added":10879},{"id":10035,"slug":"hitman","name":"Hitman","added":10516},{"id":10754,"slug":"bioshock-remastered","name":"BioShock Remastered","added":10199},{"id":10243,"slug":"company-of-heroes-2","name":"Company of Heroes 2","added":9407}]},{"id":3709,"name":"Ubisoft Montreal","slug":"ubisoft-montreal","games_count":120,"image_background":"https://media.rawg.io/media/games/c69/c69e0952cdea6baa7cf0739b2e7792fb.jpg","games":[{"id":4161,"slug":"far-cry-3","name":"Far Cry 3","added":10151},{"id":362,"slug":"for-honor","name":"For Honor","added":9330},{"id":3841,"slug":"assassins-creed-iv-black-flag","name":"Assassin’s Creed IV: Black Flag","added":9245},{"id":3687,"slug":"watch-dogs","name":"Watch Dogs","added":7986},{"id":23585,"slug":"far-cry-5","name":"Far Cry 5","added":7990},{"id":28568,"slug":"assassins-creed-ii","name":"Assassin's Creed II","added":7719}]},{"id":4132,"name":"Square Enix","slug":"square-enix","games_count":363,"image_background":"https://media.rawg.io/media/games/943/9432de383089b0a427a3cdf3687b2b73.jpg","games":[{"id":10035,"slug":"hitman","name":"Hitman","added":10516},{"id":3017,"slug":"just-cause-3","name":"Just Cause 3","added":8923},{"id":4513,"slug":"just-cause-2","name":"Just Cause 2","added":8529},{"id":3766,"slug":"thief","name":"Thief","added":7024},{"id":3474,"slug":"lara-croft-and-the-temple-of-osiris","name":"Lara Croft and the Temple of Osiris","added":6911},{"id":750,"slug":"final-fantasy-xv","name":"FINAL FANTASY XV","added":5740}]},{"id":109,"name":"Electronic Arts","slug":"electronic-arts","games_count":318,"image_background":"https://media.rawg.io/media/games/568/5689c58278e807c1574ceefb8dec026b.jpg","games":[{"id":4570,"slug":"dead-space","name":"Dead Space (2008)","added":9174},{"id":5525,"slug":"brutal-legend","name":"Brutal Legend","added":8145},{"id":998,"slug":"battlefield-1","name":"Battlefield 1","added":7428},{"id":4550,"slug":"dead-space-2","name":"Dead Space 2","added":6491},{"id":3842,"slug":"battlefield-4","name":"Battlefield 4","added":6263},{"id":42187,"slug":"the-sims-4","name":"The Sims 4","added":5971}]},{"id":3678,"name":"Capcom","slug":"capcom","games_count":457,"image_background":"https://media.rawg.io/media/games/6cc/6cc23249972a427f697a3d10eb57a820.jpg","games":[{"id":46889,"slug":"monster-hunter-world-2","name":"Monster Hunter: World","added":8412},{"id":480,"slug":"resident-evil-7-biohazard","name":"Resident Evil 7: Biohazard","added":8260},{"id":13461,"slug":"resident-evil-5-biohazard-5","name":"Resident Evil 5","added":7297},{"id":56184,"slug":"resident-evil-4","name":"Resident Evil 4 (2005)","added":6627},{"id":58755,"slug":"devil-may-cry-5","name":"Devil May Cry 5","added":6313},{"id":5159,"slug":"resident-evil-2","name":"Resident Evil 2 (1998)","added":6122}]},{"id":6,"name":"Sony Interactive Entertainment","slug":"sony-interactive-entertainment","games_count":529,"image_background":"https://media.rawg.io/media/screenshots/86b/86b4df751b6781cd460b7f784e042e5f.jpeg","games":[{"id":5193,"slug":"oddworld-abes-oddysee","name":"Oddworld: Abe's Oddysee","added":5542},{"id":4491,"slug":"shadow-of-the-colossus","name":"Shadow of the Colossus (2011)","added":4560},{"id":57908,"slug":"tomb-raider-ii","name":"Tomb Raider II","added":3125},{"id":15851,"slug":"star-wars-dark-forces-2","name":"Star Wars: Dark Forces","added":2973},{"id":5403,"slug":"flower","name":"Flower","added":2690},{"id":3223,"slug":"everybodys-gone-to-the-rapture","name":"Everybody's Gone to the Rapture","added":2387}]},{"id":17132,"name":"Aspyr Media","slug":"aspyr-media","games_count":63,"image_background":"https://media.rawg.io/media/screenshots/c21/c2123c3dea40946f705a54772ed6238b.jpg","games":[{"id":4062,"slug":"bioshock-infinite","name":"BioShock Infinite","added":15335},{"id":802,"slug":"borderlands-2","name":"Borderlands 2","added":15155},{"id":13633,"slug":"civilization-v","name":"Sid Meier's Civilization V","added":9362},{"id":3543,"slug":"borderlands-the-pre-sequel","name":"Borderlands: The Pre-Sequel","added":8883},{"id":10297,"slug":"civilization-vi","name":"Sid Meier’s Civilization VI","added":6935},{"id":15859,"slug":"star-wars-knights-of-the-old-republic-2","name":"Star Wars: Knights of the Old Republic","added":6655}]},{"id":425,"name":"SEGA","slug":"sega","games_count":573,"image_background":"https://media.rawg.io/media/games/47b/47b50d880be8453bf9cda6e5c007bc26.jpg","games":[{"id":28179,"slug":"sega-mega-drive-and-genesis-classics","name":"SEGA Mega Drive and Genesis Classics","added":8067},{"id":3556,"slug":"alien-isolation","name":"Alien: Isolation","added":7803},{"id":492,"slug":"yakuza-0","name":"Yakuza 0","added":6309},{"id":53341,"slug":"jet-set-radio-2012","name":"Jet Set Radio","added":5132},{"id":23587,"slug":"sonic-mania","name":"Sonic Mania","added":4909},{"id":3965,"slug":"binary-domain","name":"Binary Domain","added":4511}]}]}